R pour l’analyse de données
…
Some of them are often updated! Watch for updates!

3 The tibble format

3.1 tibble, a nicer data.frame

The tibble is a “modern” version of the data.frame

iris_tibble <- as_tibble(iris) # Natural conversion

The printing is naturally cropped, giving types, number of rows, cols

iris_tibble

# A tibble: 150 x 5
   Sepal.Length Sepal.Width Petal.Length Petal.Width Species
          <dbl>       <dbl>        <dbl>       <dbl> <fct>  
 1          5.1         3.5          1.4         0.2 setosa 
 2          4.9         3            1.4         0.2 setosa 
 3          4.7         3.2          1.3         0.2 setosa 
 4          4.6         3.1          1.5         0.2 setosa 
 5          5           3.6          1.4         0.2 setosa 
 6          5.4         3.9          1.7         0.4 setosa 
 7          4.6         3.4          1.4         0.3 setosa 
 8          5           3.4          1.5         0.2 setosa 
 9          4.4         2.9          1.4         0.2 setosa 
10          4.9         3.1          1.5         0.1 setosa 
# … with 140 more rows
…
[1] "Alice"  "Bob"    "Claire"

3.4 Row names in tibble

For programming reasons, tibble can’t have row names

head(swiss[, 1:3], n = 2)

           Fertility Agriculture Examination
Courtelary      80.2        17.0          15
Delemont        83.1        45.1           6

print(as_tibble(swiss[, 1:3]), n = 2)

# A tibble: 47 x 3
  Fertility Agriculture Examination
      <dbl>       <dbl>       <int>
1      80.2        17            15
2      83.1        45.1           6
# … with 45 more rows

print(as_tibble(swiss[, 1:3], rownames = "Province"), n = 2) # Creating a new column

# A tibble: 47 x 4
  Province   Fertility Agriculture Examination
  <chr>          <dbl>       <dbl>       <int>
1 Courtelary      80.2        17            15
2 Delemont        83.1        45.1           6
# … with 45 more rows

4 %>% For sequential data processing

4.1 diamonds data set

First, we load a toy data set

data(diamonds) # Load the diamond data set

# A tibble: 53,940 x 10
   carat cut       color clarity depth table price     x     y     z
   <dbl> <ord>     <ord> <ord>   <dbl> <dbl> <int> <dbl> <dbl> <dbl>
 1  0.23 Ideal     E     SI2      61.5    55   326  3.95  3.98  2.43
 2  0.21 Premium   E     SI1      59.8    61   326  3.89  3.84  2.31
 3  0.23 Good      E     VS1      56.9    65   327  4.05  4.07  2.31
 4  0.29 Premium   I     VS2      62.4    58   334  4.2   4.23  2.63
 5  0.31 Good      J     SI2      63.3    58   335  4.34  4.35  2.75
 6  0.24 Very Good J     VVS2     62.8    57   336  3.94  3.96  2.48
 7  0.24 Very Good I     VVS1     62.3    57   336  3.95  3.98  2.47
 8  0.26 Very Good H     SI1      61.9    55   337  4.07  4.11  2.53
 9  0.22 Fair      E     VS2      65.1    61   337  3.87  3.78  2.49
10  0.23 Very Good H     VS1      59.4    61   338  4     4.05  2.39
# … with 53,930 more rows
…
# A tibble: 2 x 10
  carat cut       color clarity depth table price     x     y     z
  <dbl> <ord>     <ord> <ord>   <dbl> <dbl> <int> <dbl> <dbl> <dbl>
1  0.23 Good      E     VS1      56.9    65   327  4.05  4.07  2.31
2  0.26 Very Good H     SI1      61.9    55   337  4.07  4.11  2.53

5.3 Conditional extraction: filter()

dplyr::filter allows to return rows with matching conditions

dplyr::filter(diamonds, #  Table in which we select
              color == "D", clarity == "SI1")# the , is equivalent to an "&"

# A tibble: 2,083 x 10
   carat cut       color clarity depth table price     x     y     z
   <dbl> <ord>     <ord> <ord>   <dbl> <dbl> <int> <dbl> <dbl> <dbl>
 1  0.3  Premium   D     SI1      62.6    59   552  4.23  4.27  2.66
 2  0.3  Ideal     D     SI1      62.5    57   552  4.29  4.32  2.69
 3  0.3  Ideal     D     SI1      62.1    56   552  4.3   4.33  2.68
 4  0.75 Very Good D     SI1      63.2    56  2760  5.8   5.75  3.65
 5  0.71 Very Good D     SI1      63.6    58  2764  5.64  5.68  3.6 
 6  0.71 Ideal     D     SI1      61.9    59  2764  5.69  5.72  3.53
 7  0.73 Very Good D     SI1      60.2    56  2768  5.83  5.87  3.52
 8  0.7  Very Good D     SI1      61.1    58  2768  5.66  5.73  3.48
 9  0.72 Ideal     D     SI1      60.8    57  2782  5.76  5.75  3.5 
10  0.72 Premium   D     SI1      62.7    59  2782  5.73  5.69  3.58
# … with 2,073 more rows

# Equivalent to the one before
dplyr::filter(diamonds,
              color == "D" & clarity == "SI1")

# A tibble: 2,083 x 10
   carat cut       color clarity depth table price     x     y     z
   <dbl> <ord>     <ord> <ord>   <dbl> <dbl> <int> <dbl> <dbl> <dbl>
 1  0.3  Premium   D     SI1      62.6    59   552  4.23  4.27  2.66
 2  0.3  Ideal     D     SI1      62.5    57   552  4.29  4.32  2.69
 3  0.3  Ideal     D     SI1      62.1    56   552  4.3   4.33  2.68
 4  0.75 Very Good D     SI1      63.2    56  2760  5.8   5.75  3.65
 5  0.71 Very Good D     SI1      63.6    58  2764  5.64  5.68  3.6 
 6  0.71 Ideal     D     SI1      61.9    59  2764  5.69  5.72  3.53
 7  0.73 Very Good D     SI1      60.2    56  2768  5.83  5.87  3.52
 8  0.7  Very Good D     SI1      61.1    58  2768  5.66  5.73  3.48
 9  0.72 Ideal     D     SI1      60.8    57  2782  5.76  5.75  3.5 
10  0.72 Premium   D     SI1      62.7    59  2782  5.73  5.69  3.58
# … with 2,073 more rows

# One with a "or" (using the in)
dplyr::filter(diamonds,
              color %in% c("D", "E"), clarity == "SI1")

# A tibble: 4,509 x 10
   carat cut       color clarity depth table price     x     y     z
   <dbl> <ord>     <ord> <ord>   <dbl> <dbl> <int> <dbl> <dbl> <dbl>
 1  0.21 Premium   E     SI1      59.8    61   326  3.89  3.84  2.31
 2  0.3  Premium   D     SI1      62.6    59   552  4.23  4.27  2.66
 3  0.3  Ideal     D     SI1      62.5    57   552  4.29  4.32  2.69
 4  0.3  Ideal     D     SI1      62.1    56   552  4.3   4.33  2.68
 5  0.7  Ideal     E     SI1      62.5    57  2757  5.7   5.72  3.57
 6  0.73 Very Good E     SI1      61.6    59  2760  5.77  5.78  3.56
 7  0.75 Very Good D     SI1      63.2    56  2760  5.8   5.75  3.65
 8  0.75 Premium   E     SI1      59.9    54  2760  6     5.96  3.58
 9  0.74 Ideal     E     SI1      62.3    54  2762  5.8   5.83  3.62
10  0.71 Very Good D     SI1      63.6    58  2764  5.64  5.68  3.6 
# … with 4,499 more rows

5.4 Choosing among columns select()

5.4.1 Selecting on column number

The basic select works on column number.

select(diamonds, # Data in which we select columns
       1, 4) # The position of the select column (1st and 4th)

# A tibble: 53,940 x 2
   carat clarity
   <dbl> <ord>  
 1  0.23 SI2    
 2  0.21 SI1    
 3  0.23 VS1    
 4  0.29 VS2    
 5  0.31 SI2    
 6  0.24 VVS2   
 7  0.24 VVS1   
 8  0.26 SI1    
 9  0.22 VS2    
10  0.23 VS1    
# … with 53,930 more rows

5.4.2 Selecting on names

The basic select works on column names.

select(diamonds, # dat in which we select
       carat, cut, depth) # Column names (no need for "")

# A tibble: 53,940 x 3
   carat cut       depth
   <dbl> <ord>     <dbl>
 1  0.23 Ideal      61.5
 2  0.21 Premium    59.8
 3  0.23 Good       56.9
 4  0.29 Premium    62.4
 5  0.31 Good       63.3
 6  0.24 Very Good  62.8
 7  0.24 Very Good  62.3
 8  0.26 Very Good  61.9
 9  0.22 Fair       65.1
10  0.23 Very Good  59.4
# … with 53,930 more rows

5.4.3 Removing column

One can remove column using select, by adding - in front of the column name:

select(diamonds, # Data in which we select
       -carat, -cut) # Select all columns but carat and cut

# A tibble: 53,940 x 8
   color clarity depth table price     x     y     z
   <ord> <ord>   <dbl> <dbl> <int> <dbl> <dbl> <dbl>
 1 E     SI2      61.5    55   326  3.95  3.98  2.43
 2 E     SI1      59.8    61   326  3.89  3.84  2.31
 3 E     VS1      56.9    65   327  4.05  4.07  2.31
 4 I     VS2      62.4    58   334  4.2   4.23  2.63
 5 J     SI2      63.3    58   335  4.34  4.35  2.75
 6 J     VVS2     62.8    57   336  3.94  3.96  2.48
 7 I     VVS1     62.3    57   336  3.95  3.98  2.47
 8 H     SI1      61.9    55   337  4.07  4.11  2.53
 9 E     VS2      65.1    61   337  3.87  3.78  2.49
10 H     VS1      59.4    61   338  4     4.05  2.39
# … with 53,930 more rows

5.4.4 Selecting on a condition select_if()

One can select on column condition with select_if

Put in argument a function on column that returns a TRUE/FALSE

select_if(diamonds, # Data in which we select
          .predicate = is.factor) # Select only factor columns, the .predicate is optional

# A tibble: 53,940 x 3
   cut       color clarity
   <ord>     <ord> <ord>  
 1 Ideal     E     SI2    
 2 Premium   E     SI1    
 3 Good      E     VS1    
 4 Premium   I     VS2    
 5 Good      J     SI2    
 6 Very Good J     VVS2   
 7 Very Good I     VVS1   
 8 Very Good H     SI1    
 9 Fair      E     VS2    
10 Very Good H     VS1    
# … with 53,930 more rows

select_if(diamonds, # Data in which we select
          is.numeric) # Select only numeric columns

# A tibble: 53,940 x 7
   carat depth table price     x     y     z
   <dbl> <dbl> <dbl> <int> <dbl> <dbl> <dbl>
 1  0.23  61.5    55   326  3.95  3.98  2.43
 2  0.21  59.8    61   326  3.89  3.84  2.31
 3  0.23  56.9    65   327  4.05  4.07  2.31
 4  0.29  62.4    58   334  4.2   4.23  2.63
 5  0.31  63.3    58   335  4.34  4.35  2.75
 6  0.24  62.8    57   336  3.94  3.96  2.48
 7  0.24  62.3    57   336  3.95  3.98  2.47
 8  0.26  61.9    55   337  4.07  4.11  2.53
 9  0.22  65.1    61   337  3.87  3.78  2.49
10  0.23  59.4    61   338  4     4.05  2.39
# … with 53,930 more rows

5.4.5 Selecting on a characteristic select_at()

One can select on position using select_at. It uses the dplyr function vars that allows to enclose text expressions.

select_at(diamonds, # Data in which we select
  .vars = vars(starts_with("c"))) # Select columns starting with "c"

# A tibble: 53,940 x 4
   carat cut       color clarity
   <dbl> <ord>     <ord> <ord>  
 1  0.23 Ideal     E     SI2    
 2  0.21 Premium   E     SI1    
 3  0.23 Good      E     VS1    
 4  0.29 Premium   I     VS2    
 5  0.31 Good      J     SI2    
 6  0.24 Very Good J     VVS2   
 7  0.24 Very Good I     VVS1   
 8  0.26 Very Good H     SI1    
 9  0.22 Fair      E     VS2    
10  0.23 Very Good H     VS1    
# … with 53,930 more rows
…
[1] Ideal   Premium Good    Premium Good   
Levels: Fair < Good < Very Good < Premium < Ideal

5.6 Renaming columns rename()

5.6.1 Basic renaming

You might want to rename column(s)

rename(diamonds, # Data in which we rename
       length = x, # Always New = old
       width = y) # You can rename multiple columns at once

# A tibble: 53,940 x 10
   carat cut       color clarity depth table price length width     z
   <dbl> <ord>     <ord> <ord>   <dbl> <dbl> <int>  <dbl> <dbl> <dbl>
 1  0.23 Ideal     E     SI2      61.5    55   326   3.95  3.98  2.43
 2  0.21 Premium   E     SI1      59.8    61   326   3.89  3.84  2.31
 3  0.23 Good      E     VS1      56.9    65   327   4.05  4.07  2.31
 4  0.29 Premium   I     VS2      62.4    58   334   4.2   4.23  2.63
 5  0.31 Good      J     SI2      63.3    58   335   4.34  4.35  2.75
 6  0.24 Very Good J     VVS2     62.8    57   336   3.94  3.96  2.48
 7  0.24 Very Good I     VVS1     62.3    57   336   3.95  3.98  2.47
 8  0.26 Very Good H     SI1      61.9    55   337   4.07  4.11  2.53
 9  0.22 Fair      E     VS2      65.1    61   337   3.87  3.78  2.49
10  0.23 Very Good H     VS1      59.4    61   338   4     4.05  2.39
# … with 53,930 more rows

5.6.2 Renaming on condition rename_if()

In the same way, a rename_if base on a condition

Require as argument a function to apply to each selected column.

# Add the "_fact" suffix to every factor column name
rename_if(diamonds, # Data in which we rename
          .predicate = is.factor, .funs = function(x) paste0(x, "_fact"))

# A tibble: 53,940 x 10
   carat cut_fact  color_fact clarity_fact depth table price     x     y     z
   <dbl> <ord>     <ord>      <ord>        <dbl> <dbl> <int> <dbl> <dbl> <dbl>
 1  0.23 Ideal     E          SI2           61.5    55   326  3.95  3.98  2.43
 2  0.21 Premium   E          SI1           59.8    61   326  3.89  3.84  2.31
 3  0.23 Good      E          VS1           56.9    65   327  4.05  4.07  2.31
 4  0.29 Premium   I          VS2           62.4    58   334  4.2   4.23  2.63
 5  0.31 Good      J          SI2           63.3    58   335  4.34  4.35  2.75
 6  0.24 Very Good J          VVS2          62.8    57   336  3.94  3.96  2.48
 7  0.24 Very Good I          VVS1          62.3    57   336  3.95  3.98  2.47
 8  0.26 Very Good H          SI1           61.9    55   337  4.07  4.11  2.53
 9  0.22 Fair      E          VS2           65.1    61   337  3.87  3.78  2.49
10  0.23 Very Good H          VS1           59.4    61   338  4     4.05  2.39
# … with 53,930 more rows

5.6.3 Renaming on a characteristic rename_at()

As well as a rename_at()

Require as argument a function to apply to each selected column.

# Putting in upper case columns starting with "c"
rename_at(diamonds, # Data in which we rename
          .vars = vars(starts_with("c")), .funs = toupper)

# A tibble: 53,940 x 10
   CARAT CUT       COLOR CLARITY depth table price     x     y     z
   <dbl> <ord>     <ord> <ord>   <dbl> <dbl> <int> <dbl> <dbl> <dbl>
 1  0.23 Ideal     E     SI2      61.5    55   326  3.95  3.98  2.43
 2  0.21 Premium   E     SI1      59.8    61   326  3.89  3.84  2.31
 3  0.23 Good      E     VS1      56.9    65   327  4.05  4.07  2.31
 4  0.29 Premium   I     VS2      62.4    58   334  4.2   4.23  2.63
 5  0.31 Good      J     SI2      63.3    58   335  4.34  4.35  2.75
 6  0.24 Very Good J     VVS2     62.8    57   336  3.94  3.96  2.48
 7  0.24 Very Good I     VVS1     62.3    57   336  3.95  3.98  2.47
 8  0.26 Very Good H     SI1      61.9    55   337  4.07  4.11  2.53
 9  0.22 Fair      E     VS2      65.1    61   337  3.87  3.78  2.49
10  0.23 Very Good H     VS1      59.4    61   338  4     4.05  2.39
# … with 53,930 more rows

5.7 Create or modify a column: mutate()

5.7.1 Basic modication

You can modify a column

mutate(diamonds, # Data in which we modify the column
       cut = factor(cut, labels = LETTERS[5:1])) # modifying labels of cut

# A tibble: 53,940 x 10
   carat cut   color clarity depth table price     x     y     z
   <dbl> <ord> <ord> <ord>   <dbl> <dbl> <int> <dbl> <dbl> <dbl>
 1  0.23 A     E     SI2      61.5    55   326  3.95  3.98  2.43
 2  0.21 B     E     SI1      59.8    61   326  3.89  3.84  2.31
 3  0.23 D     E     VS1      56.9    65   327  4.05  4.07  2.31
 4  0.29 B     I     VS2      62.4    58   334  4.2   4.23  2.63
 5  0.31 D     J     SI2      63.3    58   335  4.34  4.35  2.75
 6  0.24 C     J     VVS2     62.8    57   336  3.94  3.96  2.48
 7  0.24 C     I     VVS1     62.3    57   336  3.95  3.98  2.47
 8  0.26 C     H     SI1      61.9    55   337  4.07  4.11  2.53
 9  0.22 E     E     VS2      65.1    61   337  3.87  3.78  2.49
10  0.23 C     H     VS1      59.4    61   338  4     4.05  2.39
# … with 53,930 more rows

The same function also creates columns

mutate(diamonds, # Data in which we create the column
       z_square = z^2) # creates a new column as function of an existing one

# A tibble: 53,940 x 11
   carat cut       color clarity depth table price     x     y     z z_square
   <dbl> <ord>     <ord> <ord>   <dbl> <dbl> <int> <dbl> <dbl> <dbl>    <dbl>
 1  0.23 Ideal     E     SI2      61.5    55   326  3.95  3.98  2.43     5.90
 2  0.21 Premium   E     SI1      59.8    61   326  3.89  3.84  2.31     5.34
 3  0.23 Good      E     VS1      56.9    65   327  4.05  4.07  2.31     5.34
 4  0.29 Premium   I     VS2      62.4    58   334  4.2   4.23  2.63     6.92
 5  0.31 Good      J     SI2      63.3    58   335  4.34  4.35  2.75     7.56
 6  0.24 Very Good J     VVS2     62.8    57   336  3.94  3.96  2.48     6.15
 7  0.24 Very Good I     VVS1     62.3    57   336  3.95  3.98  2.47     6.10
 8  0.26 Very Good H     SI1      61.9    55   337  4.07  4.11  2.53     6.40
 9  0.22 Fair      E     VS2      65.1    61   337  3.87  3.78  2.49     6.20
10  0.23 Very Good H     VS1      59.4    61   338  4     4.05  2.39     5.71
# … with 53,930 more rows

You can create/modify multiple columns at once

This will be done sequentially!

mutate(diamonds, # Data in which we modify/create columns
       cut = factor(cut, labels = LETTERS[5:1]), # modifying labels of cut
       y = 2 * y, # doubling the width
       z_square = z^2, # creating a column z_square
       cut = z_square) # This modification overrides the first one

# A tibble: 53,940 x 11
   carat   cut color clarity depth table price     x     y     z z_square
   <dbl> <dbl> <ord> <ord>   <dbl> <dbl> <int> <dbl> <dbl> <dbl>    <dbl>
 1  0.23  5.90 E     SI2      61.5    55   326  3.95  7.96  2.43     5.90
 2  0.21  5.34 E     SI1      59.8    61   326  3.89  7.68  2.31     5.34
 3  0.23  5.34 E     VS1      56.9    65   327  4.05  8.14  2.31     5.34
 4  0.29  6.92 I     VS2      62.4    58   334  4.2   8.46  2.63     6.92
 5  0.31  7.56 J     SI2      63.3    58   335  4.34  8.7   2.75     7.56
 6  0.24  6.15 J     VVS2     62.8    57   336  3.94  7.92  2.48     6.15
 7  0.24  6.10 I     VVS1     62.3    57   336  3.95  7.96  2.47     6.10
 8  0.26  6.40 H     SI1      61.9    55   337  4.07  8.22  2.53     6.40
 9  0.22  6.20 E     VS2      65.1    61   337  3.87  7.56  2.49     6.20
10  0.23  5.71 H     VS1      59.4    61   338  4     8.1   2.39     5.71
# … with 53,930 more rows

5.7.2 Modifying columns on a condition mutate_if()

Again, you can change on a condition mutate_if

mutate_if(diamonds, # Data in which we modify column
          is.factor, # Condition on which a column is modified
          as.character) # Function to apply (transform factor columns to character)

# A tibble: 53,940 x 10
   carat cut       color clarity depth table price     x     y     z
   <dbl> <chr>     <chr> <chr>   <dbl> <dbl> <int> <dbl> <dbl> <dbl>
 1  0.23 Ideal     E     SI2      61.5    55   326  3.95  3.98  2.43
 2  0.21 Premium   E     SI1      59.8    61   326  3.89  3.84  2.31
 3  0.23 Good      E     VS1      56.9    65   327  4.05  4.07  2.31
 4  0.29 Premium   I     VS2      62.4    58   334  4.2   4.23  2.63
 5  0.31 Good      J     SI2      63.3    58   335  4.34  4.35  2.75
 6  0.24 Very Good J     VVS2     62.8    57   336  3.94  3.96  2.48
 7  0.24 Very Good I     VVS1     62.3    57   336  3.95  3.98  2.47
 8  0.26 Very Good H     SI1      61.9    55   337  4.07  4.11  2.53
 9  0.22 Fair      E     VS2      65.1    61   337  3.87  3.78  2.49
10  0.23 Very Good H     VS1      59.4    61   338  4     4.05  2.39
# … with 53,930 more rows

Check the type of cut color and clarity!

5.7.3 Modifying columns on a characteristic mutate_at()

And on position, mutate_at

mutate_at(diamonds, # Data in which we modify the column
          vars(starts_with("c")), # Names of columns modified
          .funs = function(x) 0) # Put columns to 0

# A tibble: 53,940 x 10
   carat   cut color clarity depth table price     x     y     z
   <dbl> <dbl> <dbl>   <dbl> <dbl> <dbl> <int> <dbl> <dbl> <dbl>
 1     0     0     0       0  61.5    55   326  3.95  3.98  2.43
 2     0     0     0       0  59.8    61   326  3.89  3.84  2.31
 3     0     0     0       0  56.9    65   327  4.05  4.07  2.31
 4     0     0     0       0  62.4    58   334  4.2   4.23  2.63
 5     0     0     0       0  63.3    58   335  4.34  4.35  2.75
 6     0     0     0       0  62.8    57   336  3.94  3.96  2.48
 7     0     0     0       0  62.3    57   336  3.95  3.98  2.47
 8     0     0     0       0  61.9    55   337  4.07  4.11  2.53
 9     0     0     0       0  65.1    61   337  3.87  3.78  2.49
10     0     0     0       0  59.4    61   338  4     4.05  2.39
# … with 53,930 more rows
…
